"Order ID","Customer Name","Product Name","Product Quantity","Variation details","Order Amount","Customer Email","Phone Number","Order Status"
158,"adasd asd","Sheets Procesanalyse",1,,"ZITA 150,00",marcel.tenhave@planet.nl,12342341234,Completed
152,"wrtw ertwewe","Besturingssystemen 4",1,,"ZITA 400,00",sssas@askllas.ml,2345,Completed
150,"adasd asd","Besturingssystemen 4",1,,"ZITA 1.100,00",marcel.tenhave@planet.nl,12342341234,Completed
150,"adasd asd","Besturingssystemen 5",1,,"ZITA 1.100,00",marcel.tenhave@planet.nl,12342341234,Completed
150,"adasd asd","Beturingssystemen twee",1,,"ZITA 1.100,00",marcel.tenhave@planet.nl,12342341234,Completed
142,"wrtw ertwewe","Besturingssystemen 4",1,,"ZITA 400,00",sssas@askllas.ml,2345,Completed
